python_analysis/spectrometer_working_fixed.vcd
$date
	Thu Dec 29 15:39:58 2022
$end
$version
	ModelSim Version 2022.2
$end
$timescale
	1ps
$end
$scope module spectrometer_fixpt_tb $end
$var wire 1 ! pks_expected [0:31] $end
$var wire 1 " pks_expected [0:30] $end
$var wire 1 # pks_expected [0:29] $end
$var wire 1 $ pks_expected [0:28] $end
$var wire 1 % pks_expected [0:27] $end
$var wire 1 & pks_expected [0:26] $end
$var wire 1 ' pks_expected [0:25] $end
$var wire 1 ( pks_expected [0:24] $end
$var wire 1 ) pks_expected [0:23] $end
$var wire 1 * pks_expected [0:22] $end
$var wire 1 + pks_expected [0:21] $end
$var wire 1 , pks_expected [0:20] $end
$var wire 1 - pks_expected [0:19] $end
$var wire 1 . pks_expected [0:18] $end
$var wire 1 / pks_expected [0:17] $end
$var wire 1 0 pks_expected [0:16] $end
$var wire 1 1 pks_expected [0:15] $end
$var wire 1 2 pks_expected [0:14] $end
$var wire 1 3 pks_expected [0:13] $end
$var wire 1 4 pks_expected [0:12] $end
$var wire 1 5 pks_expected [0:11] $end
$var wire 1 6 pks_expected [0:10] $end
$var wire 1 7 pks_expected [0:9] $end
$var wire 1 8 pks_expected [0:8] $end
$var wire 1 9 pks_expected [0:7] $end
$var wire 1 : pks_expected [0:6] $end
$var wire 1 ; pks_expected [0:5] $end
$var wire 1 < pks_expected [0:4] $end
$var wire 1 = pks_expected [0:3] $end
$var wire 1 > pks_expected [0:2] $end
$var wire 1 ? pks_expected [0:1] $end
$var wire 1 @ pks_expected [0:0] $end
$var wire 1 A pks_expected [1:31] $end
$var wire 1 B pks_expected [1:30] $end
$var wire 1 C pks_expected [1:29] $end
$var wire 1 D pks_expected [1:28] $end
$var wire 1 E pks_expected [1:27] $end
$var wire 1 F pks_expected [1:26] $end
$var wire 1 G pks_expected [1:25] $end
$var wire 1 H pks_expected [1:24] $end
$var wire 1 I pks_expected [1:23] $end
$var wire 1 J pks_expected [1:22] $end
$var wire 1 K pks_expected [1:21] $end
$var wire 1 L pks_expected [1:20] $end
$var wire 1 M pks_expected [1:19] $end
$var wire 1 N pks_expected [1:18] $end
$var wire 1 O pks_expected [1:17] $end
$var wire 1 P pks_expected [1:16] $end
$var wire 1 Q pks_expected [1:15] $end
$var wire 1 R pks_expected [1:14] $end
$var wire 1 S pks_expected [1:13] $end
$var wire 1 T pks_expected [1:12] $end
$var wire 1 U pks_expected [1:11] $end
$var wire 1 V pks_expected [1:10] $end
$var wire 1 W pks_expected [1:9] $end
$var wire 1 X pks_expected [1:8] $end
$var wire 1 Y pks_expected [1:7] $end
$var wire 1 Z pks_expected [1:6] $end
$var wire 1 [ pks_expected [1:5] $end
$var wire 1 \ pks_expected [1:4] $end
$var wire 1 ] pks_expected [1:3] $end
$var wire 1 ^ pks_expected [1:2] $end
$var wire 1 _ pks_expected [1:1] $end
$var wire 1 ` pks_expected [1:0] $end
$var wire 1 a pks_expected [2:31] $end
$var wire 1 b pks_expected [2:30] $end
$var wire 1 c pks_expected [2:29] $end
$var wire 1 d pks_expected [2:28] $end
$var wire 1 e pks_expected [2:27] $end
$var wire 1 f pks_expected [2:26] $end
$var wire 1 g pks_expected [2:25] $end
$var wire 1 h pks_expected [2:24] $end
$var wire 1 i pks_expected [2:23] $end
$var wire 1 j pks_expected [2:22] $end
$var wire 1 k pks_expected [2:21] $end
$var wire 1 l pks_expected [2:20] $end
$var wire 1 m pks_expected [2:19] $end
$var wire 1 n pks_expected [2:18] $end
$var wire 1 o pks_expected [2:17] $end
$var wire 1 p pks_expected [2:16] $end
$var wire 1 q pks_expected [2:15] $end
$var wire 1 r pks_expected [2:14] $end
$var wire 1 s pks_expected [2:13] $end
$var wire 1 t pks_expected [2:12] $end
$var wire 1 u pks_expected [2:11] $end
$var wire 1 v pks_expected [2:10] $end
$var wire 1 w pks_expected [2:9] $end
$var wire 1 x pks_expected [2:8] $end
$var wire 1 y pks_expected [2:7] $end
$var wire 1 z pks_expected [2:6] $end
$var wire 1 { pks_expected [2:5] $end
$var wire 1 | pks_expected [2:4] $end
$var wire 1 } pks_expected [2:3] $end
$var wire 1 ~ pks_expected [2:2] $end
$var wire 1 !! pks_expected [2:1] $end
$var wire 1 "! pks_expected [2:0] $end
$var wire 1 #! pks_expected [3:31] $end
$var wire 1 $! pks_expected [3:30] $end
$var wire 1 %! pks_expected [3:29] $end
$var wire 1 &! pks_expected [3:28] $end
$var wire 1 '! pks_expected [3:27] $end
$var wire 1 (! pks_expected [3:26] $end
$var wire 1 )! pks_expected [3:25] $end
$var wire 1 *! pks_expected [3:24] $end
$var wire 1 +! pks_expected [3:23] $end
$var wire 1 ,! pks_expected [3:22] $end
$var wire 1 -! pks_expected [3:21] $end
$var wire 1 .! pks_expected [3:20] $end
$var wire 1 /! pks_expected [3:19] $end
$var wire 1 0! pks_expected [3:18] $end
$var wire 1 1! pks_expected [3:17] $end
$var wire 1 2! pks_expected [3:16] $end
$var wire 1 3! pks_expected [3:15] $end
$var wire 1 4! pks_expected [3:14] $end
$var wire 1 5! pks_expected [3:13] $end
$var wire 1 6! pks_expected [3:12] $end
$var wire 1 7! pks_expected [3:11] $end
$var wire 1 8! pks_expected [3:10] $end
$var wire 1 9! pks_expected [3:9] $end
$var wire 1 :! pks_expected [3:8] $end
$var wire 1 ;! pks_expected [3:7] $end
$var wire 1 <! pks_expected [3:6] $end
$var wire 1 =! pks_expected [3:5] $end
$var wire 1 >! pks_expected [3:4] $end
$var wire 1 ?! pks_expected [3:3] $end
$var wire 1 @! pks_expected [3:2] $end
$var wire 1 A! pks_expected [3:1] $end
$var wire 1 B! pks_expected [3:0] $end
$var wire 1 C! outbin_expected [10] $end
$var wire 1 D! outbin_expected [9] $end
$var wire 1 E! outbin_expected [8] $end
$var wire 1 F! outbin_expected [7] $end
$var wire 1 G! outbin_expected [6] $end
$var wire 1 H! outbin_expected [5] $end
$var wire 1 I! outbin_expected [4] $end
$var wire 1 J! outbin_expected [3] $end
$var wire 1 K! outbin_expected [2] $end
$var wire 1 L! outbin_expected [1] $end
$var wire 1 M! outbin_expected [0] $end
$var wire 1 N! ready_expected $end
$upscope $end
$enddefinitions $end
#0
x!
x"
x#
x$
x%
x&
x'
x(
x)
x*
x+
x,
x-
x.
x/
x0
x1
x2
x3
x4
x5
x6
x7
x8
x9
x:
x;
x<
x=
x>
x?
x@
xA
xB
xC
xD
xE
xF
xG
xH
xI
xJ
xK
xL
xM
xN
xO
xP
xQ
xR
xS
xT
xU
xV
xW
xX
xY
xZ
x[
x\
x]
x^
x_
x`
xa
xb
xc
xd
xe
xf
xg
xh
xi
xj
xk
xl
xm
xn
xo
xp
xq
xr
xs
xt
xu
xv
xw
xx
xy
xz
x{
x|
x}
x~
x!!
x"!
x#!
x$!
x%!
x&!
x'!
x(!
x)!
x*!
x+!
x,!
x-!
x.!
x/!
x0!
x1!
x2!
x3!
x4!
x5!
x6!
x7!
x8!
x9!
x:!
x;!
x<!
x=!
x>!
x?!
x@!
xA!
xB!
xC!
xD!
xE!
xF!
xG!
xH!
xI!
xJ!
xK!
xL!
xM!
xN!
#24000
0N!
0C!
0D!
0E!
0F!
0G!
0H!
0I!
0J!
0K!
0L!
0M!
0!
0"
0#
0$
0%
0&
0'
0(
0)
0*
0+
0,
0-
0.
0/
00
01
02
03
04
05
06
07
08
09
0:
0;
0<
0=
0>
0?
0@
0A
0B
0C
0D
0E
0F
0G
0H
0I
0J
0K
0L
0M
0N
0O
0P
0Q
0R
0S
0T
0U
0V
0W
0X
0Y
0Z
0[
0\
0]
0^
0_
0`
0a
0b
0c
0d
0e
0f
0g
0h
0i
0j
0k
0l
0m
0n
0o
0p
0q
0r
0s
0t
0u
0v
0w
0x
0y
0z
0{
0|
0}
0~
0!!
0"!
0#!
0$!
0%!
0&!
0'!
0(!
0)!
0*!
0+!
0,!
0-!
0.!
0/!
00!
01!
02!
03!
04!
05!
06!
07!
08!
09!
0:!
0;!
0<!
0=!
0>!
0?!
0@!
0A!
0B!
#246231000
1N!
#246241000
1M!
18
1:
1;
1>
1?
1@
1V
1X
1Y
1Z
1[
1_
1`
1a
1b
1c
1d
1e
1f
1g
1h
1i
1j
1k
1l
1m
1n
1o
1p
1q
1r
1s
1t
1u
1v
1x
1y
1{
1|
1}
1!!
1"!
1#!
1$!
1%!
1&!
1'!
1(!
1)!
1*!
1+!
1,!
1-!
1.!
1/!
10!
11!
12!
13!
14!
15!
16!
17!
18!
19!
1<!
1>!
1@!
1B!
#246251000
1L!
0M!
0:
0;
1<
0@
0Z
1\
1z
0{
0|
1;!
1?!
0@!
1A!
0B!
#246261000
1M!
08
19
1:
0?
1@
1W
0X
0Y
1]
1^
0_
1{
1|
1~
0"!
1=!
0?!
1@!
1B!
#246271000
1K!
0L!
0M!
0:
1;
1=
1Y
0[
0]
1w
0x
0y
0z
0{
0}
0>!
1?!
0@!
0B!
#246281000
1M!
0=
1?
1Z
1[
1]
0^
0`
1{
0|
1}
0~
0!!
0=!
0?!
0A!
1B!
#246291000
1L!
0M!
1=
0?
1X
0Y
1^
1_
0}
1~
1"!
0<!
1?!
1@!
0B!
#246301000
1M!
0=
0>
1U
0V
0W
0X
0Z
0_
1`
1|
0~
0;!
1<!
1=!
1>!
0?!
0@!
1B!
#246311000
1J!
0K!
0L!
0M!
1>
1?
1X
1Z
0\
0^
0`
0|
1}
1!!
0<!
0>!
1@!
1A!
#246321000
1M!
0@
1W
0X
0[
0=!
0@!
0A!
#246331000
1L!
0M!
1:
0;
0<
1=
0>
0?
1@
1X
1Y
1\
1^
1_
0{
1|
0}
1~
0!!
0"!
09!
1:!
1;!
1=!
1A!
#246341000
1M!
0:
1;
1<
0=
1?
0@
1V
0W
0X
1[
0]
1{
0|
1}
0~
1!!
0=!
1>!
1?!
1@!
0A!
#246351000
1K!
0L!
0M!
1=
0?
1@
1W
0\
1]
0_
0}
0;!
1<!
0>!
1A!
0B!
#246361000
1M!
1T
0U
0V
0W
0Z
0[
1\
0]
1_
1|
1~
1"!
0<!
0?!
#246371000
1L!
0M!
1>
0@
1W
1Z
1[
0_
0!!
0"!
0:!
1;!
1=!
1>!
1?!
0@!
#246381000
1M!
0>
1?
1V
0W
1X
0Y
0\
1]
0^
0{
1"!
0=!
0>!
1@!
0A!
#246391000
1I!
0J!
0K!
0L!
0M!
0<
1>
1@
1U
0V
0X
1Y
0Z
0]
1_
1{
0|
1}
0~
1!!
0"!
0;!
1<!
1>!
0?!
0@!
1A!
#246401000
1M!
1<
0=
1W
1X
1Z
1\
1]
0_
1~
0!!
1"!
08!
19!
1:!
1;!
1=!
0>!
1@!
1B!
#246411000
1L!
0M!
0?
1S
0T
0U
0W
0X
0Y
0Z
0[
1^
1_
1!!
0<!
0=!
1>!
#246421000
1M!
0>
1?
0@
1V
1Y
1[
0_
0}
0;!
1<!
0>!
1?!
0@!
0B!
#246431000
1K!
0L!
0M!
0<
1=
1>
1@
1U
0V
1W
0Y
1Z
0[
0\
1_
1`
1}
0~
0"!
0:!
1;!
1=!
1>!
0?!
0A!
1B!
#246441000
1M!
1<
0=
0>
1T
0U
0W
1Y
1[
1\
0]
0^
1z
0{
1|
1~
0!!
0;!
0>!
0B!
#246451000
1L!
0M!
1>
0?
0@
1U
0Y
0Z
0`
0|
0}
0~
1!!
09!
1:!
1;!
1>!
1A!
1B!
#246461000
1M!
1?
1R
0S
0T
0U
1X
1Y
0[
1]
0_
1|
1"!
0;!
0=!
1?!
1@!
0A!
#246471000
1J!
0K!
0L!
0M!
0?
1@
1U
1W
1Z
1[
0]
1`
1~
0:!
1;!
0@!
#246481000
1M!
1=
0>
0@
1T
0W
0Z
0[
0\
1^
1_
1{
0|
1}
0~
0!!
0"!
0;!
0<!
1@!
1A!
0B!
#246491000
1L!
0M!
1@
1S
0T
0Y
1[
1\
1]
0^
1|
1!!
1"!
07!
18!
19!
1:!
1<!
1=!
0>!
0@!
0A!
1B!
#246501000
1M!
1?
0@
1T
1V
1Z
0[
1^
0!!
0:!
1;!
0<!
0=!
1>!
0?!
#246511000
1K!
0L!
0M!
1>
1Q
0R
0S
0U
1W
0X
0\
0]
0^
0_
0`
1~
1!!
09!
1:!
0>!
1?!
1A!
0B!
#246521000
1M!
1S
1X
1\
1_
1`
1y
0z
0{
0|
0~
0"!
0:!
0;!
1<!
1=!
0A!
#246531000
1L!
0M!
1:
0;
0<
0=
1@
1R
0T
0V
0W
0X
0Z
0\
0y
1{
08!
19!
1;!
1>!
0?!
1B!
#246541000
1M!
0:
1;
1<
1=
0?
1P
0Q
0R
0S
1T
1V
1W
1Y
1Z
1\
1]
1^
1z
1|
0}
09!
1:!
0<!
1?!
1@!
1A!
0B!
#246551000
1H!
0I!
0J!
0K!
0L!
0M!
0@
1R
1S
0T
0V
1X
0Z
1[
0\
0]
0^
0_
1y
0z
0{
1~
06!
17!
18!
19!
1<!
0>!
0?!
#246561000
1M!
1?
1@
1Q
0S
1U
1V
0W
1Z
1^
1}
0!!
09!
0;!
1>!
1B!
#246571000
1L!
0M!
1:
0;
0<
0=
0>
1O
0P
0Q
1S
1W
0X
0Y
0Z
1]
0^
1_
0`
1x
0y
0|
0~
08!
19!
0:!
0<!
#246581000
1M!
0:
1;
1<
1=
1P
0U
1Y
1Z
0[
0]
1^
0_
0x
1y
1|
1"!
07!
18!
1;!
1<!
0=!
1?!
0A!
0B!
#246591000
1K!
0L!
0M!
1:
0;
0<
0=
0?
1N
0O
0R
0S
1U
0V
0Z
1\
1]
0^
1`
1x
1{
0}
1!!
08!
09!
0?!
0@!
1A!
1B!
#246601000
1M!
1M
0N
0P
1T
1V
1^
1_
0a
0b
0c
0d
0e
0f
0g
0h
0i
0j
0k
0l
0m
0n
0o
0p
0q
0r
0s
0t
0u
0v
0w
0x
0{
0|
0!!
0"!
05!
16!
17!
0;!
1=!
0>!
1?!
#246611000
1L!
0M!
1>
1N
1O
1Q
1R
1S
0U
1[
0\
0^
0_
0`
1z
1}
1!!
1"!
06!
1:!
1;!
1>!
1@!
#246621000
1M!
1=
0>
0@
1K
0M
0N
1P
0S
0T
1X
0Y
1Z
1\
0]
1^
1_
1v
0y
1{
0}
0!!
04!
15!
18!
0:!
0;!
0>!
0?!
0@!
0A!
#246631000
1J!
0K!
0L!
0M!
1?
1I
1L
1M
0O
1S
1T
0X
1Y
0[
0\
0_
1u
1w
1x
0{
1!!
03!
14!
05!
0<!
1>!
0B!
#246641000
1M!
0=
1>
1C
1E
1F
1G
0K
0M
1N
0Q
0S
1U
0W
0Y
1\
1`
1p
1q
1s
0w
0z
1{
1|
1}
1~
0!!
0"!
0#!
0$!
0%!
0&!
0'!
0(!
0)!
0*!
0+!
0,!
0-!
0.!
0/!
00!
01!
02!
13!
04!
16!
08!
19!
1;!
1<!
0=!
0>!
1?!
1@!
1A!
1B!
#246651000
1L!
0M!
1=
0>
1@
0C
0E
0F
0G
1K
0R
0T
1W
1[
0\
1]
0^
1_
0p
0q
0s
0v
1z
0}
0~
1!!
1"!
15!
09!
1:!
0;!
0<!
1>!
0?!
0B!
#246661000
1M!
1>
0I
0L
1O
0P
1R
1S
1T
0U
0W
1X
1\
1a
1b
1c
1d
1e
1f
1g
1h
1i
1j
1k
1l
1m
1n
1o
1p
1q
1r
1s
1t
1v
1w
0x
1y
0|
1}
1~
03!
14!
05!
0:!
1;!
0>!
0A!
#246671000
1K!
0L!
0M!
0@
0K
1L
0N
0O
1Q
0T
1W
0X
0[
0\
0]
1^
0`
0w
1x
0y
0z
0{
1|
0}
0~
0"!
04!
15!
19!
1=!
1?!
1A!
1B!
#246681000
1M!
0>
0?
1@
0L
1M
1P
0R
0S
1T
0W
1Y
0_
1`
1z
1{
0|
1}
0!!
06!
1:!
1<!
0=!
0A!
#246691000
1L!
0M!
1<
0=
1?
0M
1N
1O
0P
0Q
1S
1U
0V
1X
0Y
1]
0^
1_
0z
0{
1|
1!!
1"!
07!
18!
09!
0:!
0;!
0<!
1>!
0@!
#246701000
1M!
0@
0O
1R
0T
0U
1W
1[
0`
1y
1{
0|
1~
0!!
0"!
05!
16!
17!
19!
1=!
1@!
1A!
0B!
#246711000
1I!
0J!
0K!
0L!
0M!
0?
0N
1O
1P
0S
1V
0W
1Y
1^
0_
1`
0y
0~
1!!
1"!
08!
09!
1:!
1;!
1<!
0>!
0A!
#246721000
1M!
1>
0P
1Q
0R
1U
0V
1W
0Y
0[
0^
1_
1|
0}
07!
18!
19!
0;!
0<!
0=!
0@!
1A!
1B!
#246731000
1L!
0M!
1=
0>
0Q
1V
0W
0X
0Z
1\
1^
0_
0`
1~
09!
0:!
1;!
1<!
1>!
0?!
1@!
0A!
0B!
#246741000
1M!
0=
1>
1?
1@
0O
1P
1Q
1S
1W
1[
0]
1y
0{
0|
0~
08!
19!
1?!
#246751000
1K!
0L!
0M!
1=
0>
0@
0Q
1R
0V
0W
1X
1Z
0\
1]
0^
1_
1`
1{
1}
0!!
09!
1:!
0;!
1=!
0>!
0@!
1A!
#246761000
1M!
0=
1>
0R
1T
0U
1W
1Y
0[
1\
0]
0_
0y
1z
1|
1~
06!
17!
18!
19!
1;!
0?!
0A!
#246771000
1L!
0M!
1=
0>
1@
0S
0T
1U
0X
1]
1^
1_
0}
1!!
0:!
1?!
1@!
1B!
#246781000
1M!
1;
0<
0=
0?
0P
1Q
1R
1S
0W
0Z
0\
0_
0{
0~
0;!
0<!
0=!
#246791000
1J!
0K!
0L!
0M!
0;
1<
1=
1>
1?
0@
0S
1V
1W
0^
1_
0`
1y
0z
1}
0!!
0"!
09!
1:!
1=!
0@!
#246801000
1M!
1;
0<
0=
0>
1@
0R
1S
1T
0U
1X
1[
1^
0_
1`
0y
1~
1!!
0:!
1<!
1>!
0?!
1A!
0B!
#246811000
1L!
0M!
1=
1>
0@
0T
0W
0Y
0[
0]
0^
0`
1z
1{
0!!
0<!
0>!
1@!
0A!
#246821000
1M!
0>
0S
1T
0X
1Y
1Z
1]
1_
1`
1y
0z
0{
0~
08!
19!
1:!
1<!
1?!
0@!
1A!
1B!
#246831000
1K!
0L!
0M!
0T
1W
0Z
1[
0_
1~
1!!
0:!
1;!
0=!
1>!
0A!
0B!
#246841000
1M!
1<
0=
0?
1@
0Q
1R
1S
1T
1U
0V
1X
0Y
1Z
1\
0]
0|
0~
0!!
0<!
0>!
0?!
#246851000
1L!
0M!
0<
1=
0U
0W
0X
1Y
1]
1^
1_
0`
1z
1!!
09!
1:!
1<!
1=!
1?!
1A!
#246861000
1M!
1>
1?
0@
0T
1U
1X
0Y
0Z
0[
0\
0]
0y
1{
1|
1"!
0<!
0=!
1@!
1B!
#246871000
1G!
0H!
0I!
0J!
0K!
0L!
0M!
1@
0U
0X
1Y
1[
0^
0_
1`
1y
0z
0{
0|
1~
0!!
0"!
0;!
1=!
#246881000
1M!
1<
0=
0?
0S
1T
1U
1W
0Y
1^
1_
0`
0~
1!!
1"!
0:!
1;!
1<!
1>!
0?!
0B!
#246891000
1L!
0M!
0>
1?
0U
1X
1Z
0[
1\
0^
0_
1`
1{
0"!
0<!
0=!
0A!
1B!
#246901000
1M!
1=
0?
0T
1U
1V
0W
1Y
1[
1_
0y
1z
1|
0!!
0;!
1<!
#246911000
1K!
0L!
0M!
1>
1?
0@
0V
0Y
0Z
0[
0\
1]
1^
0`
1y
0z
0{
0}
1~
0<!
1=!
0>!
1?!
0B!
#246921000
1M!
0>
1@
0U
1V
1`
0~
1!!
1"!
07!
18!
19!
1:!
1;!
1<!
0=!
1>!
1A!
#246931000
1L!
0M!
18
09
0:
0;
0<
0=
0?
0V
0X
1Y
1Z
1[
1\
0]
0^
0_
1}
0!!
0<!
1=!
0@!
0A!
1B!
#246941000
1M!
0@
0R
1S
1T
1U
1V
1X
0Y
0[
0\
1]
0`
0}
1!!
0"!
0;!
1<!
0?!
1@!
0B!
#246951000
1J!
0K!
0L!
0M!
08
19
1:
1;
1<
1=
1>
0V
1Y
0Z
1[
1^
1_
1}
0!!
1"!
0<!
0>!
1A!
#246961000
1M!
18
09
0:
0;
0<
1@
0U
1V
1W
0X
0[
1\
1`
0y
1z
1{
1!!
1B!
#246971000
1L!
0M!
1<
0=
1?
0@
0W
0Y
0\
0]
0^
0_
1~
0=!
1>!
#246981000
1M!
0<
1=
0V
1X
1[
1\
1]
1^
1_
1y
0z
0|
0:!
1;!
1<!
0B!
#246991000
1K!
0L!
0M!
1<
0=
0>
0?
0T
1U
1V
1W
0X
1Y
1Z
0[
0\
0^
0`
0{
1|
0~
0"!
0<!
1=!
0>!
0@!
1B!
#247001000
1M!
0<
1=
1>
1?
0W
1[
0]
0_
0}
1~
0!!
1"!
0;!
1<!
1>!
0A!
0B!
#247011000
1L!
0M!
1<
0=
1@
0V
1W
0Z
1^
1_
1`
0|
1}
0~
1!!
0=!
1?!
1@!
1A!
#247021000
1M!
1=
0>
0@
0W
1Z
1]
0^
1|
0}
1~
0"!
0>!
0?!
0A!
#247031000
1I!
0J!
0K!
0L!
0M!
1>
1@
0U
1V
1W
1X
0Y
0Z
0]
1^
0_
0y
1z
1{
0!!
1"!
0<!
1=!
0@!
#247041000
1M!
1;
0<
0>
0?
0W
1Z
0[
1\
1]
1_
0`
1}
0~
0"!
0=!
1>!
1@!
1A!
#247051000
1L!
0M!
1:
0;
0=
1?
0@
0X
1Y
1[
0^
0_
1y
0{
0|
1~
1"!
1<!
1=!
0>!
0@!
#247061000
1M!
0:
1;
1=
0?
0V
1W
0[
0\
1^
1`
0z
1|
0}
09!
1:!
1;!
0=!
1>!
1?!
1@!
0A!
1B!
#247071000
1K!
0L!
0M!
0=
1?
0W
1X
0Z
1\
0]
1_
0<!
1=!
0>!
#247081000
1M!
1<
0?
1@
0S
1T
1U
1V
1W
1Z
1[
1]
0^
0_
0y
1z
1{
1}
0~
1!!
0"!
0?!
0@!
#247091000
1L!
0M!
0<
1=
1>
0@
0X
0Z
0\
0`
1y
0z
0{
1~
0=!
1A!
0B!
#247101000
1M!
1<
0=
1?
1@
0W
1X
1Z
0[
1\
0y
1z
1{
0|
0;!
1<!
1=!
1>!
1B!
#247111000
1J!
0K!
0L!
0M!
1=
0?
0X
0Z
1[
0\
1_
1`
1y
0z
0{
0~
0!!
0>!
1?!
1@!
0A!
0B!
#247121000
1M!
0>
1?
0V
1W
1X
1Z
0[
0]
0_
0y
1z
1{
1|
0}
1!!
1"!
0=!
0?!
0@!
1A!
#247131000
1L!
0M!
1:
0;
0<
0=
1>
0@
0X
1^
1_
0`
1}
1~
0!!
0"!
1@!
1B!
#247141000
1M!
1=
1@
0W
1X
1]
0^
0|
1!!
1"!
0<!
1=!
1>!
#247151000
1K!
0L!
0M!
0=
0X
1[
1\
0]
1^
0_
1y
0z
0{
0}
0=!
0A!
0B!
#247161000
1M!
1<
0>
0@
0Y
0Z
0[
0\
0^
1_
0y
1z
1{
1|
0"!
0>!
1A!
1B!
#247171000
1L!
0M!
1>
0?
1@
0U
1V
1W
1X
1Z
1[
0_
1}
0~
0!!
0:!
1;!
1<!
1=!
1>!
1?!
0@!
0A!
#247181000
1M!
1;
0<
0X
1Y
0[
1]
1^
1_
1`
0|
0}
1!!
1:!
0;!
0<!
0=!
0>!
0?!
0B!
#247191000
1H!
0I!
0J!
0K!
0L!
0M!
0>
1?
0@
0W
1X
1[
1\
0]
0_
1|
1}
0:!
1;!
1<!
1=!
1@!
1A!
#247201000
1M!
1@
0Y
0[
1]
1_
1~
0!!
0=!
1>!
0A!
1B!
#247211000
1L!
0M!
1=
1>
0?
0@
0X
1Y
0Z
1[
0\
0^
0}
0~
0>!
1A!
#247221000
1M!
0>
1?
1@
0Y
1Z
0[
1^
0|
1}
1~
1!!
0<!
1=!
1>!
0B!
#247231000
1K!
0L!
0M!
1<
0=
1>
0V
1W
1X
1Y
0]
0^
0_
0}
0~
0!!
0@!
1B!
#247241000
1M!
1=
0>
0@
0Y
0Z
1[
1]
1_
0`
1}
1!!
0>!
1@!
#247251000
1L!
0M!
19
0:
0;
0<
0=
0?
0X
1Z
1\
0]
1`
0}
1~
1"!
0=!
1>!
0A!
#247261000
1M!
09
1:
1;
1<
1=
1?
1@
0Z
0[
0`
1}
0"!
0;!
1<!
1=!
1?!
1A!
0B!
#247271000
1J!
0K!
0L!
0M!
19
0:
0;
0<
0@
0W
1X
1Y
1`
0{
1"!
0?!
0@!
1B!
#247281000
1M!
1<
0=
0?
1@
0X
1Z
1[
0\
1]
1^
0_
0`
1|
0~
0>!
1?!
#247291000
1L!
0M!
1=
0Z
0^
1`
0}
1~
0!!
0"!
0A!
#247301000
1M!
1;
0<
0=
1>
1?
0Y
0[
1\
1^
1_
0`
1}
0~
1!!
1"!
1@!
1A!
#247311000
1K!
0L!
0M!
0;
1<
1=
0>
0?
0T
1U
1V
1W
1X
1Y
1Z
1`
1{
0|
1~
0"!
0=!
1>!
0?!
0B!
#247321000
1M!
1;
0<
0=
0Y
0]
0_
0`
0{
1|
0>!
0@!
0A!
1B!
#247331000
1L!
0M!
1<
1?
0@
0Z
1[
0\
1]
0^
1_
0|
0~
1?!
#247341000
1M!
1=
0X
1Y
0[
1\
0]
0_
1`
1~
0!!
0<!
1=!
1>!
1A!
0B!
#247351000
1I!
0J!
0K!
0L!
0M!
1:
0;
0<
0=
0Y
1Z
1[
1^
1_
1!!
1"!
1<!
0=!
0>!
0?!
1@!
0A!
#247361000
1M!
0Z
0[
1]
0^
0`
0!!
0"!
0<!
1=!
1>!
0@!
#247371000
1L!
0M!
1=
0W
1X
1Y
1[
0_
0}
0>!
1A!
#247381000
1M!
1<
0=
0?
0Y
1Z
0[
0\
1^
1_
1`
0~
1!!
0=!
1>!
1@!
0A!
#247391000
1K!
0L!
0M!
1=
1>
0Z
1[
0`
0z
1{
1|
1~
1"!
1?!
0@!
#247401000
1M!
1;
0<
0>
1?
0X
1Y
1Z
0[
0_
0~
0!!
0"!
0?!
1@!
#247411000
1L!
0M!
1<
0=
1>
0Z
1[
1\
0]
0^
1`
1~
1"!
1=!
0>!
0@!
1A!
1B!
#247421000
1M!
0>
0Y
1Z
0\
1^
1_
0`
1!!
0"!
0=!
1?!
1@!
0A!
0B!
#247431000
1J!
0K!
0L!
0M!
17
08
09
0:
0;
0<
1@
0V
1W
1X
1Y
1\
1]
0_
1`
0|
0!!
1"!
08!
19!
1:!
1;!
1<!
1=!
1>!
1A!
1B!
#247441000
1M!
1=
0?
0Z
0^
1!!
0@!
0A!
#247451000
1L!
0M!
1<
0=
1?
0@
0Y
1Z
1_
0`
0{
1|
1}
0!!
0>!
1@!
1A!
0B!
#247461000
1M!
0<
1=
1>
0?
1@
0X
1Y
0[
0\
0]
1z
0|
0~
1!!
0=!
1>!
0?!
1B!
#247471000
1K!
0L!
0M!
1;
0=
0>
0@
1X
0Y
0Z
1[
1\
1^
0_
0z
1{
0}
0!!
1=!
0@!
0B!
#247481000
1M!
1<
1?
0X
1Y
1Z
0[
1]
0^
0{
1|
1}
0"!
0>!
1?!
1@!
0A!
#247491000
1L!
0M!
1:
0;
0<
0Z
0]
1^
1`
0|
1~
1!!
1"!
0@!
1B!
#247501000
1M!
1>
0?
0Y
1Z
1[
0\
1|
0"!
0B!
#247511000
1F!
0G!
0H!
0I!
0J!
0K!
0L!
0M!
1=
0[
1]
0^
1_
0`
0}
0!!
0?!
1@!
#247521000
1M!
1;
0=
0Z
1\
1^
1`
0|
1}
0~
1"!
1?!
1B!
#247531000
1L!
0M!
1?
1@
0W
1X
1Y
1Z
1[
0\
0]
0^
0}
1~
1!!
0"!
0=!
1>!
0B!
#247541000
1M!
1=
0Z
1\
1]
0_
1}
1=!
0>!
0?!
0@!
#247551000
1K!
0L!
0M!
1<
0>
0?
0@
0Y
1Z
0\
1^
1_
0`
0}
1"!
0=!
1?!
1@!
1A!
#247561000
1M!
19
0:
0;
0<
1\
0^
0_
0x
1y
1z
1{
1|
1}
1>!
0A!
1B!
#247571000
1L!
0M!
1<
0=
1@
0[
0\
0]
1`
0}
0~
0"!
0>!
0B!
#247581000
1M!
1>
1?
0@
0X
1Y
1[
1]
1_
0`
1~
0<!
1=!
1>!
0@!
1B!
#247591000
1J!
0K!
0L!
0M!
1;
0<
1=
1@
0[
1\
0]
1`
0~
1<!
0=!
0>!
1A!
#247601000
1M!
1<
0=
0?
0Z
1[
1^
0_
0`
0|
1}
0!!
0<!
1=!
1>!
1@!
0B!
#247611000
1L!
0M!
1:
0;
0<
1=
0>
1Z
0[
0\
1]
0^
1`
0{
1~
1!!
1<!
0=!
0>!
0?!
1B!
#247621000
1M!
1<
1>
0@
0Y
0]
1^
0`
1{
0}
0~
0!!
0<!
1=!
1>!
1?!
0@!
0B!
#247631000
1K!
0L!
0M!
1;
0<
0=
1?
1]
1_
1`
0{
1}
1!!
1"!
0A!
#247641000
1M!
18
09
0:
0;
0>
0Z
0]
0_
1~
1@!
1B!
#247651000
1L!
0M!
1>
0?
1@
0U
1V
1W
1X
1Y
1Z
1[
1\
0`
1|
0~
1<!
0=!
0>!
0?!
0@!
1A!
#247661000
1M!
1<
1?
0@
0[
0\
1]
1_
1`
0|
0!!
0"!
0<!
1=!
1>!
1@!
0A!
#247671000
1I!
0J!
0K!
0L!
0M!
1;
0>
0?
1@
0Z
1[
0^
0_
0}
1~
1!!
1"!
1<!
0=!
0>!
0@!
0B!
#247681000
1M!
1:
0;
0<
0[
1\
1^
0z
1{
1|
0~
0"!
0<!
1=!
1>!
1?!
1B!
#247691000
1L!
0M!
1<
1>
1?
0\
0]
0^
0`
0|
1}
0!!
1"!
1A!
0B!
#247701000
1M!
1;
0<
1=
0>
0?
0@
0Y
1Z
1[
1_
1`
1|
0}
1!!
0"!
1<!
0=!
0>!
0?!
1@!
1B!
